…
{% highlight r %}
library(readr)

# create name of variables
cnames <- c("state", "county", "year", "age", "icd", "cause", "deaths")

# read mortality file
mort <- read_fwf("data/mort7988.txt", fwf_positions(dict$start, dict$end, cnames))
{% endhighlight %}


{% highlight text %}
## # A tibble: 8,776,385 x 7
##    state county  year   age   icd cause deaths
##    <chr>  <chr> <int> <chr> <chr> <chr>  <int>
##  1    01    001  1979    04  5789   780      1
##  2    01    001  1979    04  7980   770      1
##  3    01    001  1979    08  8121   800      1
##  4    01    001  1979    09  3439   780      1
##  5    01    001  1979    09  8120   800      2
##  6    01    001  1979    09  8189   800      1
##  7    01    001  1979    10  1629   180      1
##  8    01    001  1979    10  2396   250      1
##  9    01    001  1979    10  4289   410      1
## 10    01    001  1979    10  8070   810      1
## # ... with 8,776,375 more rows
…
